<?xml version="1.0" encoding="utf-8"?>
<!-- Generator: Adobe Illustrator 18.0.0, SVG Export Plug-In . SVG Version: 6.00 Build 0)  -->
<!DOCTYPE svg PUBLIC "-//W3C//DTD SVG 1.1//EN" "http://www.w3.org/Graphics/SVG/1.1/DTD/svg11.dtd">
<svg version="1.1" id="Layer_1" xmlns="http://www.w3.org/2000/svg" xmlns:xlink="http://www.w3.org/1999/xlink" x="0px" y="0px"
	 viewBox="0 0 159 55" enable-background="new 0 0 159 55" xml:space="preserve">
<g>
	<path d="M21,13.7h3c0.2,0,0.4-0.2,0.4-0.4c0-0.2-0.2-0.4-0.4-0.4h-3c-0.2,0-0.4,0.2-0.4,0.4C20.6,13.5,20.8,13.7,21,13.7z
		 M22.5,40.1c-0.9,0-1.6,0.7-1.6,1.6c0,0.9,0.7,1.6,1.6,1.6c0.9,0,1.6-0.7,1.6-1.6C24,40.8,23.3,40.1,22.5,40.1z M14.8,38.7h15.4V16
		H14.8V38.7z M64.1,31.3c-0.7,0-1.4,0.2-2,0.7c-0.6,0.5-1,1.1-1.2,1.9c-0.1,0.4-0.1,0.7-0.1,0.9V37c0,1,0.3,1.8,0.9,2.5
		c0.6,0.7,1.4,1,2.3,1c1.1,0,2-0.4,2.6-1.3c0.6-0.9,0.9-2,0.9-3.4c0-1.3-0.3-2.4-0.9-3.2C66,31.7,65.2,31.3,64.1,31.3z M118,31.1
		c-1.2,0-2.1,0.5-2.7,1.6c-0.5,0.9-0.8,1.9-0.8,3.2c0,1.2,0.3,2.3,0.8,3.1c0.6,1.1,1.5,1.6,2.7,1.6c1.1,0,2-0.5,2.6-1.6
		c0.6-0.9,0.8-1.9,0.8-3.2s-0.3-2.3-0.8-3.1C120,31.6,119.2,31.1,118,31.1z M78.7,31.3c-0.7,0-1.4,0.2-2,0.7c-0.6,0.5-1,1.1-1.2,1.9
		c-0.1,0.4-0.1,0.7-0.1,0.9V37c0,1,0.3,1.8,0.9,2.5c0.6,0.7,1.4,1,2.3,1c1.1,0,2-0.4,2.6-1.3c0.6-0.9,0.9-2,0.9-3.4
		c0-1.3-0.3-2.4-0.9-3.2C80.6,31.7,79.8,31.3,78.7,31.3z M48.2,26.5L48.2,26.5c-0.2,0.8-0.5,1.9-0.9,3.5l-1.5,4.8h5L49.1,30
		C48.9,29.5,48.6,28.3,48.2,26.5z M140.4,30.9c-1,0-1.7,0.4-2.4,1.2c-0.5,0.6-0.8,1.4-0.9,2.3h6.2c0-0.9-0.2-1.6-0.6-2.3
		C142.3,31.4,141.5,30.9,140.4,30.9z M61.2,17.8c0-0.1,0-0.3,0-0.4v-0.9c-1.2,0-2.4,0.2-2.4,1.3c0,0.7,0.4,1,1,1
		C60.5,18.8,61,18.3,61.2,17.8z M45.1,13.5c-0.2-0.6-0.3-1.2-0.5-1.8h0c-0.1,0.5-0.3,1.2-0.5,1.8l-0.7,2.3h2.4L45.1,13.5z M152,0H7
		C3.3,0,0,2.7,0,6.4v41.9C0,52,3.3,55,7,55h145.3c3.7,0,6.7-3,6.7-6.7V6.4C159,2.7,155.7,0,152,0z M143.2,12.8c2.2,0,3,1.8,3,3.3
		c0,0.3,0,0.6-0.1,0.7h-4.6c0,1.2,1,1.8,2.1,1.8c0.8,0,1.4-0.1,1.9-0.3l0.3,1.2c-0.6,0.3-1.4,0.4-2.4,0.4c-2.2,0-3.5-1.4-3.5-3.5
		C139.8,14.6,141,12.8,143.2,12.8z M115.7,13l0.1,1h0c0.3-0.5,1.1-1.2,2.2-1.2c1.2,0,2.4,0.8,2.4,2.9v4.1h-1.7V16
		c0-1-0.4-1.7-1.3-1.7c-0.7,0-1.2,0.5-1.4,1c-0.1,0.1-0.1,0.4-0.1,0.5v4h-1.7V15c0-0.8,0-1.4-0.1-2H115.7z M97.5,12.8
		c2.2,0,3,1.8,3,3.3c0,0.3,0,0.6-0.1,0.7h-4.6c0,1.2,1,1.8,2.1,1.8c0.8,0,1.4-0.1,1.9-0.3l0.3,1.2c-0.6,0.3-1.4,0.4-2.4,0.4
		c-2.2,0-3.5-1.4-3.5-3.5C94.2,14.6,95.3,12.8,97.5,12.8z M90.4,9.8h1.7v10h-1.7V9.8z M76.7,14.1c-0.7,0-1.4,0.2-1.8,0.5l-0.3-1.1
		c0.5-0.3,1.4-0.6,2.5-0.6c2.2,0,2.8,1.4,2.8,2.9v2.5c0,0.6,0,1.2,0.1,1.6h-1.6l-0.1-0.8h0c-0.4,0.5-1.1,0.9-2,0.9
		c-1.4,0-2.2-1-2.2-2c0-1.7,1.5-2.6,4.1-2.6v-0.1C78.1,14.8,77.9,14.1,76.7,14.1z M66.5,10.1c0.6,0,1,0.4,1,0.9c0,0.5-0.4,0.9-1,0.9
		c-0.6,0-1-0.4-1-0.9C65.5,10.5,65.9,10.1,66.5,10.1z M67.3,13v6.9h-1.7V13H67.3z M43.5,10.4h2.2l3.1,9.5h-1.9l-0.9-2.7h-3l-0.8,2.7
		h-1.8L43.5,10.4z M32,41.8c0,1.7-1.4,3-3,3H16c-1.7,0-3-1.4-3-3V12.9c0-1.7,1.4-3,3-3h13c1.7,0,3,1.4,3,3V41.8z M52.9,42.5
		l-1.7-5.4h-6l-1.6,5.4h-3.1L46.4,24h3.7l6,18.4H52.9z M53.6,19.8h-1.7L49.3,13h1.9l1.1,3.5c0.2,0.6,0.3,1.2,0.5,1.7h0
		c0.1-0.6,0.3-1.1,0.5-1.7l1.1-3.5h1.8L53.6,19.8z M57.1,18c0-1.7,1.5-2.6,4.1-2.6v-0.1c0-0.5-0.2-1.2-1.4-1.2
		c-0.7,0-1.4,0.2-1.8,0.5l-0.3-1.1c0.5-0.3,1.4-0.6,2.5-0.6c2.2,0,2.8,1.4,2.8,2.9v2.5c0,0.6,0,1.2,0.1,1.6h-1.6l-0.1-0.8h0
		c-0.4,0.5-1.1,0.9-2,0.9C57.9,20,57.1,19,57.1,18z M68.7,41c-1.1,1.2-2.5,1.7-4.1,1.7c-1.8,0-3-0.6-3.8-1.9v7h-3V33.6
		c0-1.4,0-2.9-0.1-4.4h2.6l0.2,2.1h0.1c1-1.6,2.5-2.4,4.5-2.4c1.6,0,2.9,0.6,3.9,1.9c1,1.2,1.6,2.9,1.6,4.9
		C70.5,37.9,69.9,39.7,68.7,41z M71.8,19.8H70v-10h1.7V19.8z M83.3,41c-1.1,1.2-2.5,1.7-4.1,1.7c-1.8,0-3-0.6-3.8-1.9v7h-3V33.6
		c0-1.4,0-2.9-0.1-4.4h2.6l0.2,2.1h0.1c1-1.6,2.5-2.4,4.5-2.4c1.6,0,2.9,0.6,3.9,1.9c1.1,1.2,1.6,2.9,1.6,4.9
		C85.2,37.9,84.5,39.7,83.3,41z M85.3,20c-0.9,0-1.7-0.3-2.2-1.2h0l-0.1,1h-1.5c0-0.5,0.1-1.2,0.1-1.9V9.8h1.7v4.1h0
		c0.4-0.7,1.2-1.1,2.2-1.1c1.7,0,2.9,1.4,2.9,3.5C88.5,18.8,86.9,20,85.3,20z M100.2,41.1c-1.2,1.1-2.9,1.6-5,1.6
		c-2,0-3.6-0.4-4.8-1.1l0.7-2.5c1.3,0.8,2.7,1.1,4.3,1.1c1.1,0,2-0.3,2.6-0.8c0.6-0.5,0.9-1.2,0.9-2c0-0.7-0.3-1.4-0.8-1.9
		c-0.5-0.5-1.4-1-2.5-1.4c-3.2-1.2-4.8-3-4.8-5.3c0-1.5,0.6-2.8,1.7-3.7c1.1-1,2.7-1.4,4.5-1.4c1.7,0,3.1,0.3,4.2,0.9l-0.7,2.4
		c-1-0.6-2.2-0.8-3.5-0.8c-1,0-1.9,0.3-2.4,0.8c-0.5,0.5-0.7,1-0.7,1.7c0,0.7,0.3,1.3,0.8,1.8c0.5,0.4,1.4,0.9,2.7,1.4
		c1.6,0.6,2.8,1.4,3.5,2.2c0.7,0.9,1.1,1.9,1.1,3.2C101.9,38.9,101.3,40.2,100.2,41.1z M110.6,31.4h-3.3v6.5c0,1.6,0.6,2.5,1.7,2.5
		c0.5,0,1,0,1.3-0.1l0.1,2.2c-0.6,0.2-1.3,0.3-2.3,0.3c-1.2,0-2.1-0.4-2.7-1.1c-0.7-0.7-1-1.9-1-3.6v-6.7h-1.9v-2.2h1.9v-2.4
		l2.9-0.9v3.3h3.3V31.4z M109,20c-1.9,0-3.4-1.3-3.4-3.5c0-2.3,1.5-3.6,3.5-3.6c2,0,3.4,1.4,3.4,3.5C112.5,18.9,110.7,20,109,20z
		 M122.8,40.8c-1.2,1.3-2.9,2-4.9,2c-2,0-3.5-0.6-4.7-1.9c-1.2-1.3-1.7-2.9-1.7-4.9c0-2.1,0.6-3.8,1.8-5.1c1.2-1.3,2.8-2,4.8-2
		c2,0,3.5,0.6,4.7,1.9c1.1,1.3,1.7,2.9,1.7,4.9C124.5,37.8,123.9,39.5,122.8,40.8z M125.8,13h1v-1.3l1.7-0.5V13h1.6v1.3h-1.6v3
		c0,0.8,0.2,1.3,0.9,1.3c0.3,0,0.5,0,0.7-0.1l0,1.3c-0.3,0.1-0.7,0.2-1.3,0.2c-0.6,0-1.2-0.2-1.5-0.6c-0.4-0.4-0.5-1-0.5-1.9v-3.2
		h-1V13z M133.4,31.8c-0.3-0.1-0.6-0.1-0.9-0.1c-1,0-1.8,0.4-2.4,1.2c-0.5,0.7-0.7,1.6-0.7,2.6v7h-3v-9.1c0-1.5,0-2.9-0.1-4.2h2.6
		l0.1,2.5h0.1c0.3-0.9,0.8-1.6,1.5-2.1c0.7-0.5,1.4-0.7,2.1-0.7c0.3,0,0.5,0,0.7,0V31.8z M133.9,15.7v4.1h-1.7v-10h1.7v4.1h0
		c0.2-0.3,0.5-0.6,0.9-0.8c0.4-0.2,0.8-0.3,1.2-0.3c1.2,0,2.4,0.8,2.4,3v4h-1.7V16c0-1-0.4-1.7-1.3-1.7c-0.7,0-1.2,0.5-1.4,1
		C133.9,15.4,133.9,15.5,133.9,15.7z M146.1,36.6h-8.9c0,1.3,0.5,2.3,1.3,3c0.7,0.6,1.7,0.9,2.9,0.9c1.3,0,2.5-0.2,3.6-0.6l0.5,2.1
		c-1.3,0.6-2.7,0.8-4.5,0.8c-2.1,0-3.7-0.6-4.9-1.8c-1.2-1.2-1.8-2.8-1.8-4.9c0-2,0.6-3.7,1.6-5c1.2-1.4,2.7-2.1,4.7-2.1
		c1.9,0,3.4,0.7,4.4,2.1c0.8,1.1,1.2,2.5,1.2,4.2C146.2,35.7,146.1,36.2,146.1,36.6z M85,14.2c-0.7,0-1.4,0.5-1.5,1.3
		c0,0.1-0.1,0.3-0.1,0.5V17c0,0.1,0,0.3,0,0.4c0.2,0.7,0.8,1.2,1.5,1.2c1.1,0,1.7-0.9,1.7-2.3C86.7,15.2,86.1,14.2,85,14.2z
		 M97.4,14c-1.1,0-1.5,1-1.6,1.7h3C98.9,15.1,98.6,14,97.4,14z M109.1,14.1c-1.2,0-1.7,1.2-1.7,2.3c0,1.3,0.7,2.3,1.7,2.3
		c1,0,1.7-1,1.7-2.3C110.7,15.3,110.2,14.1,109.1,14.1z M75.7,17.8c0,0.7,0.4,1,1,1c0.7,0,1.2-0.5,1.4-0.9c0-0.1,0-0.3,0-0.4v-0.9
		C76.9,16.5,75.7,16.7,75.7,17.8z M143.1,14c-1.1,0-1.5,1-1.6,1.7h3C144.5,15.1,144.2,14,143.1,14z"/>
</g>
</svg>
