<?xml version="1.0" encoding="utf-8"?>
<!-- Generator: Adobe Illustrator 18.0.0, SVG Export Plug-In . SVG Version: 6.00 Build 0)  -->
<!DOCTYPE svg PUBLIC "-//W3C//DTD SVG 1.1//EN" "http://www.w3.org/Graphics/SVG/1.1/DTD/svg11.dtd">
<svg version="1.1" id="Layer_1" xmlns="http://www.w3.org/2000/svg" xmlns:xlink="http://www.w3.org/1999/xlink" x="0px" y="0px"
	 viewBox="0 0 16 16" enable-background="new 0 0 16 16" xml:space="preserve">
<path fill="#231F20" d="M8,1c3.9,0,7.1,3.2,7,7.1c-0.1,3.7-3.2,6.8-6.9,6.9C4.2,15.1,1,11.9,1,8C1,4.1,4.1,1,8,1 M8,0
	C3.1,0-0.8,4.5,0.2,9.6c0.6,3.1,3.1,5.6,6.2,6.2c5.1,1,9.6-2.9,9.6-7.8C16,3.6,12.4,0,8,0L8,0z"/>
<g>
	<path d="M8,6L8,6C7.4,6,7,5.6,7,5v0c0-0.6,0.4-1,1-1h0c0.6,0,1,0.4,1,1v0C9,5.6,8.6,6,8,6z M8.4,12H7.6C7.3,12,7,11.7,7,11.4V7.6
		C7,7.3,7.3,7,7.6,7h0.8C8.7,7,9,7.3,9,7.6v3.8C9,11.7,8.7,12,8.4,12z"/>
</g>
</svg>
